<?xml version="1.0" standalone="no"?>
<!DOCTYPE svg PUBLIC "-//W3C//DTD SVG 1.1//EN" "http://www.w3.org/Graphics/SVG/1.1/DTD/svg11.dtd" >
<svg xmlns="http://www.w3.org/2000/svg">
<metadata>Generated by IcoMoon</metadata>
<defs>
<font id="nvp-font" horiz-adv-x="1024">
<font-face units-per-em="1024" ascent="960" descent="-64" />
<missing-glyph horiz-adv-x="1024" />
<glyph unicode="&#x20;" horiz-adv-x="512" d="" />
<glyph unicode="&#xe900;" glyph-name="clock" d="M983.127 647.31c-53.988 125.867-145.729 217.406-272.647 271.536-63.434 27.054-129.892 40.873-199.322 40.873-69.418 0-135.386-13.688-198.75-40.873-125.867-53.986-218.015-145.467-272.098-271.536-27.101-63.16-40.311-129.33-40.311-198.748 0-69.431 13.21-136.15 40.311-199.324 54.083-126.069 146.243-218.099 272.098-272.098 63.376-27.185 129.33-40.86 198.75-40.86s135.887 13.819 199.312 40.86c126.917 54.131 218.659 146.243 272.658 272.098 27.183 63.376 40.871 129.892 40.871 199.324 0 69.418-13.677 135.374-40.873 198.748zM901.394 222.364c-40.192-68.928-95.254-123.61-164.601-164.039-68.928-40.192-144.451-60.461-225.623-60.461-61.022 0-119.249 11.753-174.682 35.832-55.432 24.067-103.292 55.708-143.328 95.732-40.036 40.036-71.903 88.364-95.731 143.89-23.758 55.324-35.271 114.209-35.271 175.243 0 81.184 19.946 156.324 59.912 225.061 40.108 68.988 95.182 123.728 164.039 164.041 68.846 40.311 143.879 60.473 225.049 60.473 81.184 0 156.694-20.281 225.623-60.473 69.348-40.431 124.291-95.17 164.601-164.039 40.311-68.857 60.461-143.879 60.461-225.061 0-81.185-20.018-156.838-60.449-226.199zM543.634 453.040v290.015c0 17.354-15.121 31.352-32.477 31.352-16.232 0-30.792-13.998-30.792-31.352v-294.492c0-0.562 1.123-2.808 1.123-4.481-1.123-10.079 1.685-18.477 8.398-25.202l167.409-167.397c11.202-11.202 31.913-11.202 43.107 0 12.874 12.875 12.027 31.557 0 43.669l-156.767 157.888z" />
<glyph unicode="&#xe901;" glyph-name="delivery" d="M978.959 599.463c-27.653 29.957-67.038 46.507-110.822 46.507h-105.375v56.982c0 13.827-11.313 25.139-25.139 25.139h-501.944c-13.827 0-25.139-11.313-25.139-25.139v-87.568h-97.833c-13.827 0-25.139-11.313-25.139-25.139s11.313-25.139 25.139-25.139h122.344c0.209 0 0.419 0 0.628 0 0 0 0 0 0.209 0 13.827 0 25.139 11.313 25.139 25.139v87.568h451.666v-394.056h-236.727c-1.047 0-2.095 0-3.142-0.209-12.57 31.005-42.946 53.002-78.35 53.002-35.614 0-65.99-22.206-78.35-53.421-1.885 0.419-3.561 0.628-5.447 0.628h-49.65v87.777c0 13.827-11.313 25.139-25.139 25.139-0.419 0-0.838 0-1.257 0s-0.628 0-1.047 0h-120.877c-13.827 0-25.139-11.313-25.139-25.139s11.313-25.139 25.139-25.139h97.833v-87.568c0-13.827 11.313-25.139 25.139-25.139h74.789c0.628 0 1.047 0 1.676 0 8.38-37.709 42.108-65.781 82.331-65.781s73.741 28.072 82.331 65.781h301.25c8.589-37.499 42.108-65.781 82.331-65.781s73.741 28.072 82.331 65.781h56.144c13.827 0 25.139 11.313 25.139 25.139v208.864c0 54.259-15.712 99.928-45.041 131.771zM394.475 217.977c-18.854 0-34.147 15.293-34.147 34.147s15.293 34.147 34.147 34.147 34.147-15.293 34.147-34.147c0-18.854-15.293-34.147-34.147-34.147zM860.386 217.977c-18.854 0-34.147 15.293-34.147 34.147s15.293 34.147 34.147 34.147 34.147-15.293 34.147-34.147c-0.209-18.854-15.502-34.147-34.147-34.147zM973.722 283.758h-35.195c-12.57 30.795-42.946 52.792-78.141 52.792s-65.571-21.787-78.141-52.792h-19.273v311.935h105.375c65.99 0 105.375-47.974 105.375-128.209v-183.725zM431.764 433.755c-9.846-9.846-9.846-25.768 0-35.614 4.818-4.818 11.313-7.332 17.807-7.332s12.779 2.514 17.807 7.332l64.943 64.943c0.419 0.628 1.047 1.047 1.466 1.676 0.209 0.419 0.419 0.628 0.628 1.047s0.419 0.628 0.838 1.047c0.209 0.419 0.419 0.838 0.628 1.257s0.419 0.628 0.628 1.047c0.209 0.419 0.419 0.838 0.628 1.257s0.419 0.628 0.419 1.047c0.209 0.419 0.209 0.838 0.419 1.257s0.209 0.838 0.419 1.047c0.209 0.419 0.209 0.838 0.209 1.257s0.209 0.838 0.209 1.257c0 0.419 0.209 0.838 0.209 1.466 0 0.419 0.209 0.628 0.209 1.047 0.209 1.676 0.209 3.352 0 5.028 0 0.419 0 0.628-0.209 1.047 0 0.419-0.209 0.838-0.209 1.466 0 0.419-0.209 0.838-0.209 1.257s-0.209 0.838-0.209 1.257c-0.209 0.419-0.209 0.838-0.419 1.047-0.209 0.419-0.209 0.838-0.419 1.257s-0.419 0.628-0.419 1.047c-0.209 0.419-0.419 0.838-0.628 1.257s-0.419 0.628-0.628 1.047c-0.209 0.419-0.419 0.838-0.628 1.257s-0.419 0.628-0.838 1.047c-0.209 0.419-0.419 0.628-0.628 1.047-0.419 0.628-1.047 1.047-1.466 1.676l-61.8 61.8c-9.846 9.846-25.768 9.846-35.614 0s-9.846-25.768 0-35.614l18.645-18.645h-428.412c-13.827 0-25.139-11.313-25.139-25.139s11.313-25.139 25.139-25.139h428.203l-21.578-23.044z" />
<glyph unicode="&#xe902;" glyph-name="diploma" d="M907.859 748.439c9.034 0 16.358 7.324 16.358 16.358v114.614c0 44.437-36.855 80.59-82.158 80.59h-660.706c-45.741 0-81.571-35.398-81.571-80.59v-730.868c0-45.641 36.591-82.771 81.571-82.771h160.525v-113.414c0-5.669 2.936-10.934 7.758-13.915s10.846-3.252 15.915-0.715l79.927 39.963 79.927-39.963c2.31-1.154 4.816-1.727 7.315-1.727 2.992 0 5.974 0.82 8.6 2.443 4.822 2.981 7.758 8.247 7.758 13.915v113.443l292.98 0.517c45.305 0 82.16 36.886 82.16 82.225v114.614c0 9.034-7.324 16.358-16.358 16.358h-114.505v468.924h114.505zM891.502 879.41v-98.256h-98.147v97.165c0 26.892 21.861 48.851 48.735 48.964 27.25-0.017 49.412-21.488 49.412-47.874zM525.016 217.608c-2.29-1.226-4.249-2.981-5.725-5.101-20.526-17.067-46.323-26.45-73.050-26.45-28.382 0-55.632 10.506-76.72 29.575-24.011 21.738-37.784 52.696-37.784 84.93 0 63.139 51.366 114.505 114.505 114.505s114.505-51.366 114.505-114.505c0-31.366-12.986-61.342-35.73-82.954zM516.362-21.175l-63.569 31.784c-4.604 2.303-10.026 2.303-14.63 0l-63.569-31.784v193.166c21.747-12.151 46.343-18.65 71.647-18.65 24.676 0 48.742 6.203 70.121 17.815v-192.331zM549.078 195.324c28.292 27.653 44.384 65.588 44.384 105.238 0 81.178-66.042 147.22-147.22 147.22s-147.22-66.042-147.22-147.22c0-38.836 15.529-76.212 42.858-103.75v-98.324h-160.525c-26.94 0-48.855 22.454-48.855 50.055v730.868c0 26.846 21.459 47.874 48.855 47.874h595.66c-10.273-13.662-16.375-30.624-16.375-48.964v-729.777c0-18.615 6.207-35.813 16.633-49.623l-228.194-0.403v96.808zM891.502 246.799v-98.256c0-26.822-22.615-49.484-49.427-49.51-26.868 0.122-48.72 22.321-48.72 49.51v98.256h98.147zM446.242 382.351c-45.1 0-81.789-36.69-81.789-81.789s36.69-81.789 81.789-81.789 81.789 36.69 81.789 81.789-36.69 81.789-81.789 81.789zM446.242 251.488c-27.060 0-49.073 22.013-49.073 49.073s22.013 49.073 49.073 49.073 49.073-22.013 49.073-49.073-22.013-49.073-49.073-49.073zM664.673 628.481h-436.209c-9.034 0-16.358-7.324-16.358-16.358s7.324-16.358 16.358-16.358h436.209c9.034 0 16.358 7.324 16.358 16.358s-7.324 16.358-16.358 16.358zM599.242 563.050h-305.346c-9.034 0-16.358-7.324-16.358-16.358s7.324-16.358 16.358-16.358h305.346c9.034 0 16.358 7.324 16.358 16.358s-7.324 16.358-16.358 16.358zM664.673 693.913h-65.431c-9.034 0-16.358-7.324-16.358-16.358s7.324-16.358 16.358-16.358h65.431c9.034 0 16.358 7.324 16.358 16.358s-7.324 16.358-16.358 16.358zM228.464 661.197h305.346c9.034 0 16.358 7.324 16.358 16.358s-7.324 16.358-16.358 16.358h-305.346c-9.034 0-16.358-7.324-16.358-16.358s7.324-16.358 16.358-16.358zM283.525 751.516c2.986-2.323 6.524-3.448 10.033-3.448 4.875 0 9.697 2.17 12.923 6.314l37.992 48.834 37.974-48.829c3.099-3.985 7.863-6.316 12.91-6.316 5.049 0 9.815 2.329 12.912 6.314l37.992 48.834 37.974-48.829c3.099-3.985 7.865-6.316 12.912-6.316s9.815 2.332 12.912 6.316l37.972 48.827 37.972-48.827c5.544-7.132 15.821-8.419 22.953-2.87 7.132 5.546 8.417 15.823 2.87 22.953l-50.884 65.431c-3.099 3.985-7.865 6.316-12.912 6.316s-9.815-2.332-12.912-6.316l-37.972-48.827-37.972 48.827c-3.099 3.985-7.863 6.316-12.91 6.316-5.049 0-9.815-2.329-12.912-6.314l-37.992-48.834-37.974 48.827c-3.099 3.985-7.863 6.316-12.91 6.316-5.049 0-9.815-2.329-12.912-6.314l-50.906-65.431c-5.549-7.13-4.264-17.407 2.866-22.953z" />
<glyph unicode="&#xe903;" glyph-name="headphones" d="M862.333 570.622v39.368c0 94.225-33.345 181.782-93.795 246.75-61.956 66.689-147.146 103.261-240.081 103.261h-32.484c-92.934 0-178.124-36.571-240.081-103.261-60.45-64.968-93.795-152.524-93.795-246.75v-39.368c-73.358-4.948-131.657-66.044-131.657-140.692v-61.526c0-77.661 63.247-140.908 140.908-140.908h79.382c14.198 0 25.815 11.617 25.815 25.815v291.926c0 14.198-11.617 25.815-25.815 25.815h-37.002v38.938c0 170.165 121.331 298.38 282.030 298.38h32.484c160.914 0 282.030-128.215 282.030-298.38v-38.938h-37.002c-14.198 0-25.815-11.617-25.815-25.815v-291.711c0-14.198 11.617-25.815 25.815-25.815h36.141c-10.541-134.669-103.261-165.862-146.286-172.961-11.832 36.356-46.037 62.602-86.266 62.602h-64.538c-49.909 0-90.568-40.659-90.568-90.568s40.659-90.783 90.568-90.783h64.753c41.734 0 76.8 28.397 87.341 66.689 21.082 3.012 54.427 10.541 87.556 29.903 46.682 27.321 101.97 83.039 109.284 195.334 73.788 4.518 132.303 65.829 132.303 140.692v61.526c0.215 74.434-57.869 135.745-131.227 140.477zM225.345 279.341h-53.566c-49.264 0-89.277 40.013-89.277 89.277v61.526c0 49.264 40.013 89.277 89.277 89.277h53.566v-240.081zM577.076-12.37h-64.753c-21.513 0-38.938 17.425-38.938 38.938s17.425 38.938 38.938 38.938h64.753c21.513 0 38.938-17.425 38.938-38.938s-17.425-38.938-38.938-38.938zM942.145 368.618c0-49.264-40.013-89.277-89.277-89.277h-53.566v240.081h53.566c49.264 0 89.277-40.013 89.277-89.277v-61.526z" />
<glyph unicode="&#xe904;" glyph-name="like" d="M979.834 263.843c20.985 26.767 31.050 55.461 29.765 85.012-1.285 32.549-15.846 58.031-27.838 73.663 13.919 34.69 19.272 89.295-27.195 131.694-34.048 31.050-91.864 44.969-171.951 41.114-56.318-2.57-103.428-13.062-105.355-13.491h-0.214c-10.707-1.927-22.056-4.283-33.619-6.852-0.857 13.705 1.499 47.752 26.767 124.413 29.979 91.222 28.266 161.031-5.568 207.712-35.547 49.037-92.293 52.892-108.995 52.892-16.060 0-30.836-6.638-41.328-18.844-23.769-27.624-20.985-78.588-17.987-102.143-28.266-75.804-107.496-261.675-174.521-313.281-1.285-0.857-2.355-1.927-3.426-2.998-19.701-20.771-32.977-43.256-41.971-62.956-12.634 6.852-26.981 10.707-42.399 10.707h-130.623c-49.251 0-89.081-40.043-89.081-89.081v-347.972c0-49.251 40.043-89.081 89.081-89.081h130.623c19.058 0 36.831 5.996 51.393 16.274l50.322-5.996c7.709-1.071 144.756-18.416 285.444-15.632 25.482-1.927 49.465-2.998 71.736-2.998 38.33 0 71.736 2.998 99.573 8.994 65.526 13.919 110.28 41.757 132.979 82.657 17.345 31.264 17.345 62.314 14.561 82.014 42.613 38.545 50.108 81.158 48.609 111.137-0.857 17.345-4.711 32.12-8.78 43.041zM103.374 2.168c-17.345 0-31.264 14.133-31.264 31.264v348.186c0 17.345 14.133 31.264 31.264 31.264h130.623c17.345 0 31.264-14.133 31.264-31.264v-347.972c0-17.345-14.133-31.264-31.264-31.264h-130.623v-0.214zM925.015 288.897c-8.994-9.422-10.707-23.769-3.854-34.904 0-0.214 8.78-15.204 9.85-35.761 1.499-28.052-11.992-52.892-40.258-74.091-10.064-7.709-14.133-20.985-9.85-32.977 0-0.214 9.208-28.48-5.782-55.247-14.347-25.696-46.253-44.112-94.648-54.391-38.759-8.351-91.436-9.85-156.105-4.711-0.857 0-1.927 0-2.998 0-137.69-2.998-276.878 14.99-278.377 15.204h-0.214l-21.628 2.57c1.285 5.996 1.927 12.42 1.927 18.844v348.186c0 9.208-1.499 18.202-4.069 26.553 3.854 14.347 14.561 46.253 39.829 73.449 96.147 76.233 190.153 333.41 194.222 344.545 1.713 4.497 2.141 9.422 1.285 14.347-3.64 23.983-2.355 53.32 2.784 62.1 11.349-0.214 41.971-3.426 60.386-28.908 21.842-30.193 20.985-84.156-2.57-155.677-35.975-108.995-38.973-166.384-10.493-191.652 14.133-12.634 32.977-13.276 46.682-8.351 13.062 2.998 25.482 5.568 37.26 7.495 0.857 0.214 1.927 0.428 2.784 0.642 65.74 14.347 183.515 23.127 224.415-14.133 34.69-31.692 10.064-73.663 7.281-78.16-7.923-11.992-5.568-27.624 5.139-37.26 0.214-0.214 22.698-21.414 23.769-49.894 0.857-19.058-8.137-38.545-26.767-57.817z" />
<glyph unicode="&#xe905;" glyph-name="package" d="M997.58 695.014l-200.986 254.904c-5.041 6.356-12.493 10.082-20.603 10.082h-527.781c-8.11 0-15.562-3.726-20.603-10.082l-200.986-254.904c-3.726-4.603-5.699-10.301-5.699-16.219v-716.493c0-14.466 11.836-26.301 26.301-26.301h929.534c14.466 0 26.301 11.836 26.301 26.301v716.493c0.219 5.918-1.753 11.616-5.479 16.219zM926.128 700.712h-387.726v206.685h224.877l162.849-206.685zM260.923 907.397h224.877v-206.685h-387.726l162.849 206.685zM73.525-11.397v659.507h876.932v-659.507h-876.932zM636.813 436.384l-176.219-176.219-73.205 73.205c-10.301 10.301-26.959 10.301-37.26 0s-10.301-26.959 0-37.26l91.836-91.836c5.041-5.041 11.836-7.671 18.63-7.671s13.37 2.63 18.63 7.671l194.63 194.63c10.301 10.301 10.301 26.959 0 37.26-10.082 10.521-26.74 10.521-37.041 0.219z" />
<glyph unicode="&#xe906;" glyph-name="placeholder" d="M511.984 960c-207.854 0-376.975-169.121-376.975-376.996 0-54.222 11.098-105.991 32.969-153.883 94.254-206.25 274.966-424.007 328.118-485.827 3.982-4.622 9.788-7.283 15.898-7.283s11.915 2.662 15.898 7.283c53.132 61.809 233.843 279.556 328.129 485.827 21.882 47.892 32.969 99.662 32.969 153.883-0.021 207.875-169.142 376.996-377.006 376.996zM511.984 387.192c-107.972 0-195.823 87.851-195.823 195.823 0 107.983 87.851 195.834 195.823 195.834s195.823-87.851 195.823-195.834c0.010-107.972-87.841-195.823-195.823-195.823z" />
<glyph unicode="&#xe907;" glyph-name="planning" d="M1002.004 941.738h-757.25c-12.15 0-21.996-9.845-21.996-21.996v-437.285h-200.763c-12.15 0-21.996-9.845-21.996-21.996v-372.822c0-73.542 59.829-133.379 133.374-133.379 1.895 0 757.25 0 757.25 0 73.542 0 133.379 59.834 133.379 133.379v832.103c-0.003 12.15-9.848 21.996-21.999 21.996zM43.992 87.639v350.827h178.767v-350.827c0-49.285-40.097-89.388-89.388-89.388-49.282 0-89.379 40.103-89.379 89.388zM980.008 87.639c0-49.285-40.097-89.388-89.388-89.388h-658.336c21.406 23.667 34.466 55.036 34.466 89.388v810.107h713.258v-810.107zM592.487 687.678h281.918c12.15 0 21.996 9.845 21.996 21.996s-9.845 21.996-21.996 21.996h-281.918c-12.15 0-21.996-9.845-21.996-21.996s9.848-21.996 21.996-21.996zM592.487 446.038h281.918c12.15 0 21.996 9.845 21.996 21.996s-9.845 21.996-21.996 21.996h-281.918c-12.15 0-21.996-9.845-21.996-21.996s9.848-21.996 21.996-21.996zM592.487 204.392h281.918c12.15 0 21.996 9.845 21.996 21.996s-9.845 21.996-21.996 21.996h-281.918c-12.15 0-21.996-9.845-21.996-21.996 0-12.148 9.848-21.996 21.996-21.996zM389.513 662.925c4.159-4.399 9.945-6.892 15.992-6.892 0.059 0 0.12 0 0.185 0 6.118 0.053 11.936 2.645 16.063 7.165l120.821 132.33c8.191 8.971 7.555 22.884-1.414 31.076-8.971 8.185-22.884 7.555-31.076-1.414l-104.852-114.836-32.639 34.563c-8.347 8.834-22.271 9.226-31.099 0.889-8.834-8.341-9.226-22.26-0.889-31.093l48.907-51.787zM510.085 573.047l-104.852-114.83-32.645 34.557c-8.341 8.839-22.266 9.232-31.093 0.889-8.834-8.341-9.226-22.26-0.889-31.093l48.907-51.781c4.159-4.399 9.945-6.892 15.992-6.892 0.059 0 0.12 0 0.185 0 6.118 0.053 11.936 2.645 16.063 7.165l120.821 132.324c8.185 8.971 7.555 22.884-1.414 31.076s-22.884 7.561-31.076-1.414zM510.085 320.908l-104.852-114.83-32.645 34.557c-8.341 8.839-22.266 9.235-31.093 0.889-8.834-8.341-9.226-22.26-0.889-31.093l48.907-51.781c4.159-4.399 9.945-6.892 15.992-6.892 0.059 0 0.12 0 0.185 0 6.118 0.053 11.936 2.645 16.063 7.165l120.821 132.324c8.185 8.971 7.555 22.884-1.414 31.076-8.971 8.191-22.884 7.558-31.076-1.414z" />
<glyph unicode="&#xe908;" glyph-name="quality" d="M694.728 545.394l-51.199 51.199c-6.674 6.674-17.46 6.674-24.132 0l-175.665-175.665-56.199 56.199c-6.674 6.674-17.46 6.674-24.132 0l-51.199-51.199c-6.674-6.672-6.674-17.46 0-24.132l119.464-119.464c3.328-3.346 7.698-5 12.066-5 4.37 0 8.738 1.672 12.066 5l238.929 238.929c6.674 6.672 6.674 17.458 0 24.132zM443.733 318.531l-95.332 95.332 27.067 27.067 56.199-56.199c6.674-6.674 17.46-6.674 24.132 0l175.665 175.665 27.067-27.067-214.798-214.798zM1020.030 356.52l-76.219 91.476 76.219 91.476c4.25 5.086 5.154 12.168 2.356 18.158-2.816 5.99-8.84 9.83-15.462 9.83h-224.134l-14.968 104.804c-1.194 8.414-8.396 14.66-16.896 14.66h-130.353c-20.104 16.76-97.654 81.372-97.654 81.372-6.332 5.29-15.514 5.29-21.846 0l-97.654-81.372h-130.353c-8.5 0-15.684-6.246-16.896-14.644l-14.968-104.822h-224.128c-6.622 0-12.646-3.84-15.462-9.83-2.816-6.008-1.894-13.090 2.356-18.158l76.219-91.476-76.219-91.476c-4.25-5.086-5.154-12.168-2.356-18.158 2.816-6.008 8.84-9.83 15.462-9.83h224.132c4.556-31.829 14.984-104.822 14.984-104.822 1.194-8.414 8.396-14.644 16.878-14.644h130.353l97.654-81.372c3.174-2.646 7.048-3.96 10.922-3.96s7.766 1.314 10.922 3.96l97.636 81.372c26.521 0 130.403-0.068 130.369 0 8.5 0 15.684 6.246 16.896 14.644 0 0 10.428 72.993 14.984 104.822h224.116c6.622 0 12.646 3.84 15.462 9.83 2.82 6.010 1.898 13.092-2.352 18.16zM53.513 362.664l62.003 74.409c5.274 6.332 5.274 15.53 0 21.846l-62.003 74.411h166.055l-62.003-74.409c-5.274-6.332-5.274-15.53 0-21.846l62.003-74.409h-166.055zM754.905 356.538c-0.836-1.006-1.57-2.116-2.15-3.294-1.194-2.39-1.246-2.492-16.606-110.044-125.762 0-125.882-0.068-129.379-1.81-1.178-0.598-2.286-1.314-3.294-2.15l-91.476-76.219-91.476 76.219c-3.054 2.56-6.93 3.96-10.922 3.96h-121.734c-15.36 107.552-15.412 107.654-16.606 110.044-0.598 1.178-1.314 2.286-2.15 3.294l-76.219 91.458 76.219 91.476c2.032 2.44 3.346 5.376 3.788 8.516l14.968 104.804h121.734c3.994 0 7.85 1.4 10.922 3.96l91.476 76.219c92.978-77.48 93.046-77.514 94.77-78.386 2.372-1.178 4.984-1.792 7.628-1.792h121.734l14.968-104.822c0.444-3.14 1.758-6.076 3.788-8.516l76.219-91.458-76.201-91.458zM804.43 362.664l62.003 74.409c5.274 6.332 5.274 15.53 0 21.846l-62.003 74.409h166.055l-62.003-74.409c-5.274-6.332-5.274-15.53 0-21.846l62.003-74.409h-166.055z" />
<glyph unicode="&#xe909;" glyph-name="settings" d="M948.154 301.715c-54.578 54.572-133.204 75.336-207.274 55.362l-42.574 42.576c-0.060 0.062-0.124 0.126-0.186 0.188l-269.533 269.539c8.622 23.074 13.346 48.038 13.346 74.080 0 1.116-0.116 2.204-0.33 3.256-0.118 29.612-6.332 59.192-18.648 86.712-3.62 8.096-13.122 11.72-21.214 8.096-8.092-3.62-11.722-13.12-8.098-21.214 20.932-46.78 21.148-100.568 0.59-147.564-0.742-1.696-1.14-3.472-1.272-5.252-20.6-44.108-58.542-78.52-105.014-94.46-1.704 0.024-3.424-0.19-5.1-0.726-65.302-20.812-135.92-3.696-184.296 44.682-33.11 33.108-51.932 77.728-53.244 123.888l72.724-72.728c3.676-3.674 8.888-5.342 14.018-4.484l120.826 20.318c6.816 1.148 12.132 6.528 13.2 13.356l18.62 119.126c0.792 5.066-0.884 10.208-4.508 13.834l-93.106 93.108c60.406 13.672 124.564-4.26 169.090-48.794 4.774-4.772 9.316-9.84 13.506-15.066 5.546-6.922 15.652-8.042 22.57-2.49 6.92 5.544 8.036 15.652 2.49 22.57-4.922 6.142-10.256 12.094-15.854 17.694-59.568 59.572-148.986 78.674-227.806 48.676-5.088-1.938-8.85-6.322-9.99-11.646-1.14-5.322 0.496-10.864 4.346-14.714l106.274-106.272-15.572-99.626-101.246-17.026-91.882 91.884c-4.27 4.27-10.568 5.784-16.306 3.922-5.742-1.86-9.952-6.782-10.906-12.74-10.822-67.728 11.626-137.070 60.048-185.496 40.804-40.802 95.046-62.694 150.79-62.802 0.98-0.186 1.988-0.294 3.020-0.294 18.718 0 36.876 2.448 54.176 7.016l41.954-41.952c0.042-0.042 0.084-0.086 0.128-0.128l269.615-269.619c-2.788-7.432-5.194-15.040-7.138-22.828-0.398-1.6-0.542-3.2-0.458-4.766-11.594-49.286-5.408-101.21 18.282-147.078 2.854-5.524 8.466-8.692 14.28-8.692 2.482 0 5 0.578 7.356 1.794 7.88 4.070 10.968 13.758 6.9 21.634-24.926 48.258-26.79 106.83-4.982 156.682 0.698 1.594 1.102 3.258 1.258 4.93 20.726 44.324 59.072 79.044 106.11 94.792 1.342 0.070 2.69 0.294 4.008 0.712 65.304 20.822 135.928 3.698 184.308-44.682 33.108-33.11 51.93-77.724 53.242-123.88l-72.72 72.724c-3.674 3.672-8.898 5.334-14.016 4.48l-120.83-20.316c-6.818-1.146-12.134-6.528-13.204-13.356l-18.62-119.128c-0.792-5.066 0.884-10.208 4.51-13.834l93.1-93.1c-60.396-13.668-124.558 4.272-169.088 48.794-1.736 1.736-3.482 3.55-5.178 5.39-6.014 6.512-16.17 6.92-22.692 0.91-6.516-6.016-6.922-16.174-0.91-22.692 1.988-2.154 4.032-4.28 6.072-6.32 40.864-40.858 95.76-62.676 151.654-62.676 25.588 0 51.4 4.58 76.146 13.996 5.092 1.936 8.852 6.32 9.992 11.644s-0.496 10.866-4.346 14.716l-106.274 106.274 15.568 99.63 101.25 17.024 91.88-91.882c4.268-4.264 10.566-5.778 16.306-3.92 5.742 1.86 9.954 6.782 10.906 12.74 10.826 67.728-11.62 137.068-60.044 185.494zM610.061 257.389l-261.481 261.485c-0.002 0-0.002 0.002-0.004 0.002-0.012 0.012-0.024 0.024-0.036 0.036l-31.232 31.23c40.772 18.56 74.68 49.646 96.78 88.316l261.225-261.225c0.050-0.050 0.098-0.1 0.148-0.15l31.506-31.51c-40.856-18.506-74.782-49.612-96.906-88.184zM404.701 540.859c-6.234 6.31-16.402 6.362-22.706 0.13-6.308-6.234-6.368-16.402-0.132-22.706l198.604-200.906c3.14-3.178 7.28-4.77 11.42-4.77 4.078 0 8.156 1.546 11.286 4.638 6.308 6.234 6.368 16.402 0.13 22.706l-198.602 200.908zM442.685 578.879c-6.248 6.296-16.414 6.338-22.706 0.094-6.296-6.244-6.34-16.412-0.094-22.706l200.044-201.69c3.14-3.166 7.27-4.75 11.4-4.75 4.088 0 8.176 1.552 11.306 4.656 6.296 6.244 6.34 16.412 0.094 22.708l-200.044 201.688zM362.707 338.551c-2.868 4.966-8.168 8.028-13.906 8.028h-173.042c-5.738 0-11.036-3.062-13.906-8.028l-86.528-149.864c-2.868-4.968-2.868-11.090 0-16.058l86.528-149.86c2.868-4.966 8.168-8.028 13.906-8.028h173.042c5.738 0 11.036 3.062 13.906 8.028l86.526 149.86c2.868 4.968 2.868 11.090 0 16.058l-86.526 149.864zM339.531 46.854h-154.502l-77.258 133.804 77.258 133.808h154.502l77.256-133.808-77.256-133.804zM262.277 271.721c-50.212 0-91.062-40.848-91.062-91.060 0-15.114 3.79-30.090 10.954-43.312 4.226-7.8 13.972-10.692 21.77-6.466s10.69 13.972 6.466 21.768c-4.626 8.536-7.074 18.222-7.074 28.008 0 32.504 26.446 58.946 58.952 58.946s58.948-26.444 58.948-58.946c0-20.836-11.194-40.336-29.266-50.92l-0.776-0.446c-1.288-0.726-2.35-1.288-3.342-1.766-0.028-0.016-0.060-0.032-0.096-0.048-0.98-0.468-2.066-0.938-3.386-1.472l-0.918-0.364c-1.436-0.55-2.578-0.952-3.596-1.27-0.056-0.020-0.112-0.036-0.166-0.052-1.010-0.312-2.164-0.62-3.602-0.966l-0.952-0.22c-2.548-0.566-5.17-0.966-7.792-1.188l-1-0.078c-3.18-0.216-4.948-0.216-8.084 0l-1.016 0.078c-2.632 0.22-5.256 0.624-7.81 1.19l-0.928 0.214c-1.454 0.348-2.61 0.66-3.618 0.97-0.056 0.018-0.112 0.034-0.166 0.052-1.016 0.314-2.16 0.72-3.552 1.252l-0.962 0.382c-8.228 3.306-17.582-0.676-20.89-8.904-3.31-8.23 0.676-17.582 8.904-20.89l1.398-0.552c2.046-0.786 3.778-1.396 5.436-1.916 0.064-0.020 0.128-0.040 0.192-0.060 1.718-0.53 3.538-1.026 5.756-1.56 0.49-0.118 0.98-0.23 1.468-0.336 3.944-0.876 7.998-1.494 12.066-1.838 0.5-0.042 0.998-0.080 1.526-0.116 2.33-0.158 4.308-0.232 6.224-0.232 1.914 0 3.89 0.072 6.248 0.232 0.5 0.036 0.998 0.072 1.51 0.116 4.058 0.344 8.112 0.964 12.046 1.836 0.494 0.11 0.986 0.22 1.494 0.342 2.198 0.53 4.022 1.026 5.74 1.558 0.064 0.022 0.128 0.042 0.192 0.060 1.658 0.518 3.392 1.128 5.48 1.932l1.38 0.546c1.998 0.808 3.746 1.572 5.348 2.342 0.042 0.022 0.104 0.050 0.16 0.078 1.582 0.766 3.25 1.646 5.138 2.714 0.424 0.24 0.848 0.484 1.22 0.702 27.822 16.294 45.102 46.414 45.102 78.602 0.002 50.208-40.85 91.058-91.064 91.058zM661.425 558.005c2.868-4.966 8.168-8.028 13.906-8.028h173.042c5.738 0 11.036 3.062 13.906 8.028l86.526 149.86c2.868 4.966 2.868 11.090 0 16.056l-86.526 149.866c-2.868 4.966-8.168 8.028-13.906 8.028h-173.042c-5.738 0-11.036-3.062-13.906-8.028l-86.528-149.866c-2.868-4.966-2.868-11.090 0-16.056l86.528-149.86zM684.601 849.704h154.502l77.256-133.808-77.256-133.804h-154.502l-77.258 133.804 77.258 133.808zM703.509 666.121c7.798 4.226 10.69 13.972 6.466 21.768-4.626 8.536-7.074 18.222-7.074 28.008 0 32.504 26.446 58.946 58.952 58.946s58.948-26.444 58.948-58.946c0-20.834-11.194-40.336-29.266-50.92l-0.776-0.446c-1.288-0.726-2.35-1.288-3.342-1.766-0.028-0.016-0.060-0.032-0.096-0.050-0.98-0.468-2.066-0.938-3.386-1.474l-0.918-0.364c-1.436-0.55-2.578-0.952-3.596-1.27-0.056-0.020-0.112-0.036-0.166-0.052-1.010-0.31-2.164-0.62-3.602-0.966l-0.952-0.218c-2.546-0.566-5.17-0.966-7.792-1.188l-1.002-0.078c-3.168-0.212-4.944-0.214-8.082 0l-1.016 0.078c-2.632 0.222-5.256 0.624-7.81 1.19l-0.928 0.214c-1.454 0.348-2.61 0.66-3.618 0.97-0.056 0.018-0.112 0.034-0.166 0.052-1.020 0.316-2.16 0.72-3.552 1.252l-0.962 0.382c-8.224 3.308-17.582-0.676-20.89-8.904-3.31-8.23 0.676-17.582 8.904-20.89l1.398-0.552c2.046-0.786 3.778-1.396 5.436-1.916 0.064-0.020 0.128-0.040 0.192-0.060 1.718-0.53 3.54-1.026 5.756-1.56 0.488-0.118 0.98-0.23 1.468-0.336 3.944-0.876 7.998-1.494 12.066-1.838 0.5-0.042 0.998-0.080 1.526-0.116 2.33-0.158 4.308-0.232 6.224-0.232s3.892 0.072 6.248 0.232c0.5 0.036 0.998 0.072 1.51 0.116 4.058 0.344 8.112 0.964 12.030 1.832 0.5 0.112 0.998 0.224 1.512 0.346 2.198 0.532 4.022 1.026 5.74 1.556 0.064 0.022 0.128 0.042 0.192 0.060 1.656 0.518 3.392 1.128 5.48 1.932l1.38 0.546c1.998 0.808 3.746 1.572 5.348 2.342 0.046 0.022 0.104 0.052 0.16 0.078 1.582 0.766 3.25 1.644 5.138 2.714 0.424 0.24 0.85 0.484 1.22 0.702 27.822 16.294 45.102 46.414 45.102 78.602 0 50.212-40.854 91.060-91.066 91.060s-91.062-40.848-91.062-91.060c0-15.112 3.79-30.090 10.954-43.312 4.226-7.798 13.972-10.69 21.77-6.464z" />
<glyph unicode="&#xe90a;" glyph-name="star" d="M1022.596 567.377c-3.363 10.298-12.19 17.654-22.909 19.336l-319.46 45.397-143.757 288.985c-4.834 9.668-14.712 15.763-25.431 15.763v0c-10.719 0-20.597-6.095-25.431-15.973l-141.866-289.826-319.46-47.499c-10.719-1.681-19.546-9.037-22.909-19.336s-0.42-21.648 7.356-29.004l231.819-224.673-53.594-318.199c-1.892-10.719 2.522-21.437 11.349-27.743 4.834-3.573 10.719-5.464 16.604-5.464 4.624 0 9.037 1.051 13.241 3.363l285.202 151.113 286.043-149.432c4.203-2.102 8.617-3.153 13.031-3.153v0c15.553 0 28.373 12.82 28.373 28.373 0 2.312-0.21 4.414-0.841 6.515l-55.275 316.308 230.348 225.934c8.197 7.566 10.929 18.915 7.566 29.214zM734.662 342.284c-6.725-6.515-9.668-15.973-7.987-25.221l48.129-275.955-248.422 129.676c-8.197 4.414-18.075 4.203-26.482 0l-247.582-131.147 46.448 276.375c1.471 9.248-1.471 18.495-8.197 25.010l-200.924 195.039 277.216 41.194c9.248 1.471 17.234 7.146 21.227 15.553l123.16 251.575 124.842-250.944c4.203-8.407 12.19-14.081 21.437-15.553l277.426-39.512-200.293-196.090z" />
<glyph unicode="&#xe90b;" glyph-name="tick-sign" d="M867.518 860.441l-512.001-511.888-199.026 198.963-156.491-156.488 355.52-355.469 668.48 668.39z" />
<glyph unicode="&#xe90c;" glyph-name="wallet" d="M1024 488.344h-26.137v188.674h-119.36l-266.148 266.144-161.15-161.15-94.68 94.688-199.686-199.686h-156.84v-724.18h997.863v291.037h26.137v244.472zM800.226 677.014h-375.74l187.87 187.87 187.87-187.87zM356.525 798.422l55.547-55.547-65.864-65.861h-111.090l121.408 121.408zM942.512 8.186h-887.16v613.477h887.16v-133.323h-361.323v-244.468h361.323v-235.686zM968.649 299.227h-332.108v133.766h332.108v-133.766zM676.515 393.785h76.876v-55.351h-76.876v55.351z" />
</font></defs></svg>